Team file
…
purdyB1<- head(purdyB, 1)
purdyB2<- select(purdyB1, -c(Opponent_Opponent))
purdyB3<- purdyB2 %>%
  pivot_longer(2:19, names_to = 'Type', values_to = 'Statistics')

completeISU<- full_join(new3, purdyB3, by=c('Type', 'Name', 'Statistics'))

completeISU

## # A tibble: 36 x 3
##    Type          Statistics Name    
##    <chr>              <dbl> <chr>   
##  1 Rushing_ATT          400 ISU TEAM
##  2 Rushing_YDS         1754 ISU TEAM
##  3 Rushing_TD            22 ISU TEAM
##  4 Receiving_REC        315 ISU TEAM
##  5 Receiving_YDS         21 ISU TEAM
##  6 Receiving_TD          29 ISU TEAM
##  7 Passing_YDS         4047 ISU TEAM
##  8 Passing_TD            29 ISU TEAM
##  9 Passing_INT            9 ISU TEAM
## 10 Tackles_Solo         483 ISU TEAM
## #  with 26 more rows
…
